{"count":273,"next":"http://localhost:8000/services/iris/api/record_cards/record_cards/pending-validation/?applicant_identifier_lookup=ilike_contains&normalized_record_id_lookup=ilike_contains&ordering=ubication__district_id&page=2&page_size=7","previous":null,"results":[{"id":77,"user_id":"demo","created_at":"2019-02-20T15:47:48.463680+01:00","updated_at":"2019-02-20T15:47:48.463697+01:00","description":"saddssdsa asd sadsad","responsible_profile":{"id":1,"description":"DAIR","profile_ctrl_user_id":"DAIR","dist_sect_id":0,"email":"","signature":"Esto es una firma","citizen_nd":true,"is_ambit":true},"process":null,"mayorship":false,"normalized_record_id":"365OFQP","alarm":false,"ans_overcome":0,"ans_limit_date":null,"urgent":false,"element_detail":{"id":6,"short_description":"dsfdfsdf","description":"TEST OCULTA","pda_description":"dfsdfsfds","app_description":"TEST OCULTA","validation_place_days":301,"detail_code":"","rat_code":"3333","similarity_hours":29,"similarity_meters":33,"lopd":"","head_text":"","app_resolution_radius_meters":333,"sla_hours":3,"allow_multiderivation_on_reassignment":false,"order":2,"element":{"id":1,"description":"BBBBB","order":0,"element_code":"","area":{"id":1,"description":"AAAA","order":6,"area_code":"","query_area":false,"favourite":false,"description_es":"AAAAA2","description_ca":"AAAA","description_en":"AAAAA"},"is_favorite":false,"description_es":"BBBB","description_ca":"BBBBB","description_en":"BBBB"},"process":"502","allow_external":false,"custom_answer":false,"show_pda_resolution_time":false,"requires_ubication":false,"requires_ubication_full_address":false,"requires_ubication_district":false,"requires_citizen":false,"aggrupation_first":false,"immediate_response":true,"first_instance_response":false,"requires_appointment":true,"allow_resolution_change":false,"footer_text":"","validated_reassignable":true,"sla_allows_claims":false,"autovalidate_records":true,"active":true,"activation_date":"2019-09-11","external_protocol_id":"10000000","app_description_es":"TEST OCULTA","app_description_ca":"TEST OCULTA","app_description_en":"dsfdfsdf","head_text_es":"","head_text_ca":"","head_text_en":"","lopd_es":"","lopd_ca":"","lopd_en":"","short_description_es":"43324324","short_description_ca":"dsfdfsdf","short_description_en":"234324234","footer_text_es":"","footer_text_ca":"","footer_text_en":"","description_es":"dffds","description_ca":"TEST OCULTA","description_en":"dffd"},"record_state":{"id":0,"user_id":"","description":"Pending to validate","acronym":"PEND","enabled":true},"actions":{"reasign":{"action_url":"/services/iris/api/record_cards/record_cards/reasign/","check_url":null,"reason":"La fitxa 365OFQP no es pot reassignar fora de l'àmbit perquè s'ha sobrepassat el periode per fer-ho. Per a reassignar-la fora de l'àmbit, s'ha de cancelar la fitxa per caducitat.","can_perform":true,"action_method":"post"}},"alarms":{"mayorship":false,"urgent":true,"pend_citizen_response":false,"response_time_expired":false,"citizen_response":false,"reasigned_task":false,"citizen_claim":false,"citizen_web_claim":false,"related_records":false,"cancel_request":false,"possible_similar_records":false,"response_to_responsible":false,"pend_response_responsible":false},"full_detail":true,"ubication":{"id":5,"via_type":"Gran Via","official_street_name":"Corts Catalanes","street":"CORTS CATALANES","street2":"0697","neighborhood":"el Fort Pienc","neighborhood_b":"el Fort Pienc","neighborhood_id":"05","district":1,"statistical_sector":"260","geocode_validation":"16940900697006970","geocode_district_id":"1","research_zone":"017","stair":"","floor":"","door":"","letter":"","coordinate_x":null,"coordinate_y":null,"coordinate_utm_x":null,"coordinate_utm_y":null,"latitude":null,"longitude":null,"xetrs89a":431297.5876,"yetrs89a":4583174.5675,"numbering_type":"1"},"user_displayed":"","record_type":{"id":1,"user_id":"1","created_at":"2019-01-02T01:00:00+01:00","updated_at":"2019-09-13T16:05:03.139365+02:00","description":"Queixa","tri":11,"trt":30,"templates":["Template 1","Consulta 22","Template 3"],"can_delete":false,"description_es":"Queja","description_ca":"Queixa","description_en":"Complaint"}},{"id":494,"user_id":"demo","created_at":"2019-11-27T13:34:03.493414+01:00","updated_at":"2020-01-23T09:37:41.523879+01:00","description":"asdds dadasdsa dsadsad dsa","responsible_profile":{"id":5,"description":"GRUP1","profile_ctrl_user_id":"GRUP1","dist_sect_id":0,"email":"","signature":"","citizen_nd":false,"is_ambit":false},"process":"500","mayorship":false,"normalized_record_id":"ZLB1819","alarm":false,"ans_overcome":null,"ans_limit_date":"2019-11-27T15:34:03.493414+01:00","urgent":true,"element_detail":{"id":20,"short_description":"TEST UBICACIÓ DISTRICTE","description":"TEST UBICACIÓN DISTRICTO CON MUCHAS PALABRAS PARA PROBAR","pda_description":"TEST UBICACIÓ DISTRICTE","app_description":"TEST UBICACIÓ DISTRICTE","validation_place_days":222,"detail_code":"","rat_code":"22","similarity_hours":22,"similarity_meters":22,"lopd":"","head_text":"","app_resolution_radius_meters":222,"sla_hours":2,"allow_multiderivation_on_reassignment":false,"order":0,"element":{"id":1,"description":"BBBBB","order":0,"element_code":"","area":{"id":1,"description":"AAAA","order":6,"area_code":"","query_area":false,"favourite":false,"description_es":"AAAAA2","description_ca":"AAAA","description_en":"AAAAA"},"is_favorite":false,"description_es":"BBBB","description_ca":"BBBBB","description_en":"BBBB"},"process":"500","allow_external":false,"custom_answer":false,"show_pda_resolution_time":false,"requires_ubication":false,"requires_ubication_full_address":false,"requires_ubication_district":true,"requires_citizen":false,"aggrupation_first":false,"immediate_response":true,"first_instance_response":false,"requires_appointment":false,"allow_resolution_change":false,"footer_text":"","validated_reassignable":true,"sla_allows_claims":false,"autovalidate_records":false,"active":true,"activation_date":null,"external_protocol_id":"2121213","app_description_es":"TEST UBICACIÓ DISTRICTE","app_description_ca":"TEST UBICACIÓ DISTRICTE","app_description_en":"TEST UBICACIÓ DISTRICTE","head_text_es":"","head_text_ca":"","head_text_en":"","lopd_es":"","lopd_ca":"","lopd_en":"","short_description_es":"TEST UBICACIÓ DISTRICTE","short_description_ca":"TEST UBICACIÓ DISTRICTE","short_description_en":"TEST UBICACIÓ DISTRICTE","footer_text_es":"","footer_text_ca":"","footer_text_en":"","description_es":"TEST UBICACIÓN DISTRICTO CON MUCHAS PALABRAS PARA PROBAR","description_ca":"TEST UBICACIÓN DISTRICTO CON MUCHAS PALABRAS PARA PROBAR","description_en":"TEST UBICACIÓN DISTRICTO CON MUCHAS PALABRAS PARA PROBAR"},"record_state":{"id":0,"user_id":"","description":"Pending to validate","acronym":"PEND","enabled":true},"actions":{"validate":{"action_url":"/services/iris/api/record_cards/record_cards/494/validate/","check_url":"/services/iris/api/record_cards/record_cards/494/validate/check/","permission":"RECORD_CARD_VALIDATE","can_perform":true},"cancel":{"action_url":"/services/iris/api/record_cards/record_cards/494/cancel/","check_url":null,"permission":"RECORD_CARD_CANCEL","can_perform":true},"reasign":{"action_url":"/services/iris/api/record_cards/record_cards/reasign/","check_url":null,"reason":"La fitxa ZLB1819 no es pot reassignar fora de l'àmbit perquè s'ha sobrepassat el periode per fer-ho. Per a reassignar-la fora de l'àmbit, s'ha de cancelar la fitxa per caducitat.","can_perform":true,"action_method":"post"}},"alarms":{"mayorship":false,"urgent":false,"pend_citizen_response":false,"response_time_expired":false,"citizen_response":false,"reasigned_task":false,"citizen_claim":false,"citizen_web_claim":false,"related_records":false,"cancel_request":false,"possible_similar_records":false,"response_to_responsible":false,"pend_response_responsible":false},"full_detail":true,"ubication":{"id":98,"via_type":"","official_street_name":"","street":"","street2":"","neighborhood":"","neighborhood_b":"","neighborhood_id":"","district":1,"statistical_sector":"","geocode_validation":"","geocode_district_id":"","research_zone":"","stair":"","floor":"","door":"","letter":"","coordinate_x":null,"coordinate_y":null,"coordinate_utm_x":null,"coordinate_utm_y":null,"latitude":null,"longitude":null,"xetrs89a":null,"yetrs89a":null,"numbering_type":""},"user_displayed":"demo","record_type":{"id":5,"user_id":"22","created_at":"2019-09-18T11:20:50.213310+02:00","updated_at":"2019-09-18T11:20:50.213329+02:00","description":"PETICIO DE SERVEI","tri":22,"trt":22,"templates":["Template 1222","saasddasdas dasdas"],"can_delete":false,"description_es":"PETICIO DE SERVEI","description_ca":"PETICIO DE SERVEI","description_en":"PETICIO DE SERVEI"}},{"id":44,"user_id":"demo","created_at":"2019-02-13T16:34:43.862208+01:00","updated_at":"2019-02-13T16:34:43.862227+01:00","description":"saddsasad sadsadas","responsible_profile":{"id":1,"description":"DAIR","profile_ctrl_user_id":"DAIR","dist_sect_id":0,"email":"","signature":"Esto es una firma","citizen_nd":true,"is_ambit":true},"process":null,"mayorship":false,"normalized_record_id":"789QOFI","alarm":false,"ans_overcome":0,"ans_limit_date":null,"urgent":false,"element_detail":{"id":1,"short_description":"CONSELL ASSESSOR GENT GRAN","description":"Consell assessor de la gent gran","pda_description":"ddfssssssssssssssssssssss","app_description":"","validation_place_days":2,"detail_code":"520101","rat_code":"IRAIX","similarity_hours":24,"similarity_meters":50,"lopd":"","head_text":"","app_resolution_radius_meters":22,"sla_hours":36,"allow_multiderivation_on_reassignment":false,"order":8,"element":{"id":1,"description":"BBBBB","order":0,"element_code":"","area":{"id":1,"description":"AAAA","order":6,"area_code":"","query_area":false,"favourite":false,"description_es":"AAAAA2","description_ca":"AAAA","description_en":"AAAAA"},"is_favorite":false,"description_es":"BBBB","description_ca":"BBBBB","description_en":"BBBB"},"process":"503","allow_external":false,"custom_answer":false,"show_pda_resolution_time":false,"requires_ubication":false,"requires_ubication_full_address":false,"requires_ubication_district":true,"requires_citizen":false,"aggrupation_first":false,"immediate_response":true,"first_instance_response":true,"requires_appointment":false,"allow_resolution_change":false,"footer_text":"","validated_reassignable":true,"sla_allows_claims":true,"autovalidate_records":true,"active":true,"activation_date":null,"external_protocol_id":"10000000","app_description_es":null,"app_description_ca":null,"app_description_en":null,"head_text_es":"","head_text_ca":"","head_text_en":"","lopd_es":"","lopd_ca":"","lopd_en":"","short_description_es":"CONSEJO ASESOR  GENTE MAYOR","short_description_ca":"CONSELL ASSESSOR GENT GRAN","short_description_en":"Advisory board of the people more","footer_text_es":"","footer_text_ca":"","footer_text_en":"","description_es":"ddfssssssssssssssssssssss","description_ca":"Consell assessor de la gent gran","description_en":"Advisory board of the people more"},"record_state":{"id":0,"user_id":"","description":"Pending to validate","acronym":"PEND","enabled":true},"actions":{"reasign":{"action_url":"/services/iris/api/record_cards/record_cards/reasign/","check_url":null,"reason":"La fitxa 789QOFI no es pot reassignar fora de l'àmbit perquè s'ha sobrepassat el periode per fer-ho. Per a reassignar-la fora de l'àmbit, s'ha de cancelar la fitxa per caducitat.","can_perform":true,"action_method":"post"}},"alarms":{"mayorship":false,"urgent":false,"pend_citizen_response":false,"response_time_expired":false,"citizen_response":false,"reasigned_task":false,"citizen_claim":false,"citizen_web_claim":false,"related_records":false,"cancel_request":false,"possible_similar_records":false,"response_to_responsible":false,"pend_response_responsible":false},"full_detail":true,"ubication":{"id":2,"via_type":"Carrer","official_street_name":"Berenguer de Palou","street":"BERENGUER DE PALOU","street2":"0042","neighborhood":"la Sagrera","neighborhood_b":"la Sagrera","neighborhood_id":"61","district":1,"statistical_sector":"029","geocode_validation":"03970900042000420","geocode_district_id":"1","research_zone":"063","stair":"","floor":"1","door":"2","letter":"","coordinate_x":null,"coordinate_y":null,"coordinate_utm_x":null,"coordinate_utm_y":null,"latitude":null,"longitude":null,"xetrs89a":432477.7996,"yetrs89a":4585918.5245,"numbering_type":"2"},"user_displayed":"","record_type":{"id":2,"user_id":"11","created_at":"2019-01-02T01:00:00+01:00","updated_at":"2019-09-13T16:04:56.225171+02:00","description":"Suggeriment","tri":11,"trt":11,"templates":["Template 1","Test","Template TEST"],"can_delete":false,"description_es":"Sugerencia","description_ca":"Suggeriment","description_en":"Suggestion"}},{"id":46,"user_id":"demo","created_at":"2019-02-13T17:33:13.347357+01:00","updated_at":"2019-02-13T17:33:13.347400+01:00","description":"asds sadasasd asd","responsible_profile":{"id":1,"description":"DAIR","profile_ctrl_user_id":"DAIR","dist_sect_id":0,"email":"","signature":"Esto es una firma","citizen_nd":true,"is_ambit":true},"process":null,"mayorship":false,"normalized_record_id":"938YNSU","alarm":false,"ans_overcome":0,"ans_limit_date":null,"urgent":false,"element_detail":{"id":1,"short_description":"CONSELL ASSESSOR GENT GRAN","description":"Consell assessor de la gent gran","pda_description":"ddfssssssssssssssssssssss","app_description":"","validation_place_days":2,"detail_code":"520101","rat_code":"IRAIX","similarity_hours":24,"similarity_meters":50,"lopd":"","head_text":"","app_resolution_radius_meters":22,"sla_hours":36,"allow_multiderivation_on_reassignment":false,"order":8,"element":{"id":1,"description":"BBBBB","order":0,"element_code":"","area":{"id":1,"description":"AAAA","order":6,"area_code":"","query_area":false,"favourite":false,"description_es":"AAAAA2","description_ca":"AAAA","description_en":"AAAAA"},"is_favorite":false,"description_es":"BBBB","description_ca":"BBBBB","description_en":"BBBB"},"process":"503","allow_external":false,"custom_answer":false,"show_pda_resolution_time":false,"requires_ubication":false,"requires_ubication_full_address":false,"requires_ubication_district":true,"requires_citizen":false,"aggrupation_first":false,"immediate_response":true,"first_instance_response":true,"requires_appointment":false,"allow_resolution_change":false,"footer_text":"","validated_reassignable":true,"sla_allows_claims":true,"autovalidate_records":true,"active":true,"activation_date":null,"external_protocol_id":"10000000","app_description_es":null,"app_description_ca":null,"app_description_en":null,"head_text_es":"","head_text_ca":"","head_text_en":"","lopd_es":"","lopd_ca":"","lopd_en":"","short_description_es":"CONSEJO ASESOR  GENTE MAYOR","short_description_ca":"CONSELL ASSESSOR GENT GRAN","short_description_en":"Advisory board of the people more","footer_text_es":"","footer_text_ca":"","footer_text_en":"","description_es":"ddfssssssssssssssssssssss","description_ca":"Consell assessor de la gent gran","description_en":"Advisory board of the people more"},"record_state":{"id":0,"user_id":"","description":"Pending to validate","acronym":"PEND","enabled":true},"actions":{"reasign":{"action_url":"/services/iris/api/record_cards/record_cards/reasign/","check_url":null,"reason":"La fitxa 938YNSU no es pot reassignar fora de l'àmbit perquè s'ha sobrepassat el periode per fer-ho. Per a reassignar-la fora de l'àmbit, s'ha de cancelar la fitxa per caducitat.","can_perform":true,"action_method":"post"}},"alarms":{"mayorship":false,"urgent":false,"pend_citizen_response":false,"response_time_expired":false,"citizen_response":false,"reasigned_task":false,"citizen_claim":false,"citizen_web_claim":false,"related_records":false,"cancel_request":false,"possible_similar_records":false,"response_to_responsible":false,"pend_response_responsible":false},"full_detail":true,"ubication":{"id":3,"via_type":"Carrer","official_street_name":"29 del BZ (No Oficial)","street":"29 DEL BZ (NO OFICIAL)","street2":"0002","neighborhood":"la Marina del Prat Vermell","neighborhood_b":"la Marina del Prat Vermell","neighborhood_id":"12","district":1,"statistical_sector":"061","geocode_validation":"70185700002000020","geocode_district_id":"1","research_zone":"025","stair":"","floor":"","door":"","letter":"","coordinate_x":null,"coordinate_y":null,"coordinate_utm_x":null,"coordinate_utm_y":null,"latitude":null,"longitude":null,"xetrs89a":427691.3076,"yetrs89a":4576237.1725,"numbering_type":"2"},"user_displayed":"","record_type":{"id":2,"user_id":"11","created_at":"2019-01-02T01:00:00+01:00","updated_at":"2019-09-13T16:04:56.225171+02:00","description":"Suggeriment","tri":11,"trt":11,"templates":["Template 1","Test","Template TEST"],"can_delete":false,"description_es":"Sugerencia","description_ca":"Suggeriment","description_en":"Suggestion"}},{"id":80,"user_id":"demo","created_at":"2019-02-21T13:55:04.831754+01:00","updated_at":"2019-02-21T13:55:04.831781+01:00","description":"sadasdads sadasdd","responsible_profile":{"id":1,"description":"DAIR","profile_ctrl_user_id":"DAIR","dist_sect_id":0,"email":"","signature":"Esto es una firma","citizen_nd":true,"is_ambit":true},"process":null,"mayorship":false,"normalized_record_id":"399TJXW","alarm":false,"ans_overcome":0,"ans_limit_date":null,"urgent":false,"element_detail":{"id":1,"short_description":"CONSELL ASSESSOR GENT GRAN","description":"Consell assessor de la gent gran","pda_description":"ddfssssssssssssssssssssss","app_description":"","validation_place_days":2,"detail_code":"520101","rat_code":"IRAIX","similarity_hours":24,"similarity_meters":50,"lopd":"","head_text":"","app_resolution_radius_meters":22,"sla_hours":36,"allow_multiderivation_on_reassignment":false,"order":8,"element":{"id":1,"description":"BBBBB","order":0,"element_code":"","area":{"id":1,"description":"AAAA","order":6,"area_code":"","query_area":false,"favourite":false,"description_es":"AAAAA2","description_ca":"AAAA","description_en":"AAAAA"},"is_favorite":false,"description_es":"BBBB","description_ca":"BBBBB","description_en":"BBBB"},"process":"503","allow_external":false,"custom_answer":false,"show_pda_resolution_time":false,"requires_ubication":false,"requires_ubication_full_address":false,"requires_ubication_district":true,"requires_citizen":false,"aggrupation_first":false,"immediate_response":true,"first_instance_response":true,"requires_appointment":false,"allow_resolution_change":false,"footer_text":"","validated_reassignable":true,"sla_allows_claims":true,"autovalidate_records":true,"active":true,"activation_date":null,"external_protocol_id":"10000000","app_description_es":null,"app_description_ca":null,"app_description_en":null,"head_text_es":"","head_text_ca":"","head_text_en":"","lopd_es":"","lopd_ca":"","lopd_en":"","short_description_es":"CONSEJO ASESOR  GENTE MAYOR","short_description_ca":"CONSELL ASSESSOR GENT GRAN","short_description_en":"Advisory board of the people more","footer_text_es":"","footer_text_ca":"","footer_text_en":"","description_es":"ddfssssssssssssssssssssss","description_ca":"Consell assessor de la gent gran","description_en":"Advisory board of the people more"},"record_state":{"id":0,"user_id":"","description":"Pending to validate","acronym":"PEND","enabled":true},"actions":{"reasign":{"action_url":"/services/iris/api/record_cards/record_cards/reasign/","check_url":null,"reason":"La fitxa 399TJXW no es pot reassignar fora de l'àmbit perquè s'ha sobrepassat el periode per fer-ho. Per a reassignar-la fora de l'àmbit, s'ha de cancelar la fitxa per caducitat.","can_perform":true,"action_method":"post"}},"alarms":{"mayorship":false,"urgent":false,"pend_citizen_response":false,"response_time_expired":false,"citizen_response":false,"reasigned_task":false,"citizen_claim":false,"citizen_web_claim":false,"related_records":false,"cancel_request":false,"possible_similar_records":false,"response_to_responsible":false,"pend_response_responsible":false},"full_detail":true,"ubication":{"id":6,"via_type":"Carrer","official_street_name":"Ample","street":"AMPLE","street2":"0002","neighborhood":"el Barri Gòtic","neighborhood_b":"el Barri Gòtic","neighborhood_id":"02","district":1,"statistical_sector":"088","geocode_validation":"1442040000200002B","geocode_district_id":"1","research_zone":"030","stair":"","floor":"22","door":"22","letter":"","coordinate_x":null,"coordinate_y":null,"coordinate_utm_x":null,"coordinate_utm_y":null,"latitude":null,"longitude":null,"xetrs89a":431338.8686,"yetrs89a":4581129.5125,"numbering_type":"2"},"user_displayed":"","record_type":{"id":2,"user_id":"11","created_at":"2019-01-02T01:00:00+01:00","updated_at":"2019-09-13T16:04:56.225171+02:00","description":"Suggeriment","tri":11,"trt":11,"templates":["Template 1","Test","Template TEST"],"can_delete":false,"description_es":"Sugerencia","description_ca":"Suggeriment","description_en":"Suggestion"}},{"id":81,"user_id":"demo","created_at":"2019-02-21T13:55:37.522432+01:00","updated_at":"2019-02-21T13:55:37.522449+01:00","description":"dsadsa dsadsad","responsible_profile":{"id":1,"description":"DAIR","profile_ctrl_user_id":"DAIR","dist_sect_id":0,"email":"","signature":"Esto es una firma","citizen_nd":true,"is_ambit":true},"process":null,"mayorship":false,"normalized_record_id":"643PJVU","alarm":false,"ans_overcome":0,"ans_limit_date":null,"urgent":false,"element_detail":{"id":6,"short_description":"dsfdfsdf","description":"TEST OCULTA","pda_description":"dfsdfsfds","app_description":"TEST OCULTA","validation_place_days":301,"detail_code":"","rat_code":"3333","similarity_hours":29,"similarity_meters":33,"lopd":"","head_text":"","app_resolution_radius_meters":333,"sla_hours":3,"allow_multiderivation_on_reassignment":false,"order":2,"element":{"id":1,"description":"BBBBB","order":0,"element_code":"","area":{"id":1,"description":"AAAA","order":6,"area_code":"","query_area":false,"favourite":false,"description_es":"AAAAA2","description_ca":"AAAA","description_en":"AAAAA"},"is_favorite":false,"description_es":"BBBB","description_ca":"BBBBB","description_en":"BBBB"},"process":"502","allow_external":false,"custom_answer":false,"show_pda_resolution_time":false,"requires_ubication":false,"requires_ubication_full_address":false,"requires_ubication_district":false,"requires_citizen":false,"aggrupation_first":false,"immediate_response":true,"first_instance_response":false,"requires_appointment":true,"allow_resolution_change":false,"footer_text":"","validated_reassignable":true,"sla_allows_claims":false,"autovalidate_records":true,"active":true,"activation_date":"2019-09-11","external_protocol_id":"10000000","app_description_es":"TEST OCULTA","app_description_ca":"TEST OCULTA","app_description_en":"dsfdfsdf","head_text_es":"","head_text_ca":"","head_text_en":"","lopd_es":"","lopd_ca":"","lopd_en":"","short_description_es":"43324324","short_description_ca":"dsfdfsdf","short_description_en":"234324234","footer_text_es":"","footer_text_ca":"","footer_text_en":"","description_es":"dffds","description_ca":"TEST OCULTA","description_en":"dffd"},"record_state":{"id":0,"user_id":"","description":"Pending to validate","acronym":"PEND","enabled":true},"actions":{"reasign":{"action_url":"/services/iris/api/record_cards/record_cards/reasign/","check_url":null,"reason":"La fitxa 643PJVU no es pot reassignar fora de l'àmbit perquè s'ha sobrepassat el periode per fer-ho. Per a reassignar-la fora de l'àmbit, s'ha de cancelar la fitxa per caducitat.","can_perform":true,"action_method":"post"}},"alarms":{"mayorship":false,"urgent":false,"pend_citizen_response":false,"response_time_expired":false,"citizen_response":false,"reasigned_task":false,"citizen_claim":false,"citizen_web_claim":false,"related_records":false,"cancel_request":false,"possible_similar_records":false,"response_to_responsible":false,"pend_response_responsible":false},"full_detail":true,"ubication":{"id":7,"via_type":"Carrer","official_street_name":"28 del BZ","street":"28 DEL BZ","street2":"0057","neighborhood":"la Marina del Prat Vermell","neighborhood_b":"la Marina del Prat Vermell","neighborhood_id":"12","district":1,"statistical_sector":"061","geocode_validation":"70181900057000570","geocode_district_id":"1","research_zone":"025","stair":"","floor":"","door":"","letter":"","coordinate_x":null,"coordinate_y":null,"coordinate_utm_x":null,"coordinate_utm_y":null,"latitude":null,"longitude":null,"xetrs89a":427320.5216,"yetrs89a":4576460.9285,"numbering_type":"1"},"user_displayed":"","record_type":{"id":1,"user_id":"1","created_at":"2019-01-02T01:00:00+01:00","updated_at":"2019-09-13T16:05:03.139365+02:00","description":"Queixa","tri":11,"trt":30,"templates":["Template 1","Consulta 22","Template 3"],"can_delete":false,"description_es":"Queja","description_ca":"Queixa","description_en":"Complaint"}},{"id":601,"user_id":"demo","created_at":"2020-01-21T08:08:18.987066+01:00","updated_at":"2020-01-23T09:37:42.126083+01:00","description":"saddas das dasasd dsadas asdasasd","responsible_profile":{"id":405580,"description":"22_@ (C) 22@","profile_ctrl_user_id":"22@0000","dist_sect_id":42,"email":" ","signature":" ","citizen_nd":false,"is_ambit":true},"process":"500","mayorship":false,"normalized_record_id":"PHH6541","alarm":false,"ans_overcome":null,"ans_limit_date":"2020-01-21T10:08:18.987066+01:00","urgent":false,"element_detail":{"id":26,"short_description":"TEST UBICACIÓ DISTRICTE","description":"Test","pda_description":"TEST UBICACIÓ DISTRICTE","app_description":"TEST UBICACIÓ DISTRICTE","validation_place_days":222,"detail_code":"","rat_code":"22","similarity_hours":22,"similarity_meters":22,"lopd":"","head_text":"","app_resolution_radius_meters":222,"sla_hours":2,"allow_multiderivation_on_reassignment":false,"order":3,"element":{"id":1,"description":"BBBBB","order":0,"element_code":"","area":{"id":1,"description":"AAAA","order":6,"area_code":"","query_area":false,"favourite":false,"description_es":"AAAAA2","description_ca":"AAAA","description_en":"AAAAA"},"is_favorite":false,"description_es":"BBBB","description_ca":"BBBBB","description_en":"BBBB"},"process":"500","allow_external":false,"custom_answer":false,"show_pda_resolution_time":false,"requires_ubication":false,"requires_ubication_full_address":false,"requires_ubication_district":true,"requires_citizen":false,"aggrupation_first":false,"immediate_response":true,"first_instance_response":false,"requires_appointment":false,"allow_resolution_change":false,"footer_text":"","validated_reassignable":true,"sla_allows_claims":false,"autovalidate_records":false,"active":true,"activation_date":null,"external_protocol_id":"2121213","app_description_es":"TEST UBICACIÓ DISTRICTE","app_description_ca":"TEST UBICACIÓ DISTRICTE","app_description_en":"TEST UBICACIÓ DISTRICTE","head_text_es":"","head_text_ca":"","head_text_en":"","lopd_es":"","lopd_ca":"","lopd_en":"","short_description_es":"TEST UBICACIÓ DISTRICTE","short_description_ca":"TEST UBICACIÓ DISTRICTE","short_description_en":"TEST UBICACIÓ DISTRICTE","footer_text_es":"","footer_text_ca":"","footer_text_en":"","description_es":"Test","description_ca":"Test","description_en":"Test"},"record_state":{"id":0,"user_id":"","description":"Pending to validate","acronym":"PEND","enabled":true},"actions":{"validate":{"action_url":"/services/iris/api/record_cards/record_cards/601/validate/","check_url":"/services/iris/api/record_cards/record_cards/601/validate/check/","permission":"RECORD_CARD_VALIDATE","can_perform":true},"cancel":{"action_url":"/services/iris/api/record_cards/record_cards/601/cancel/","check_url":null,"permission":"RECORD_CARD_CANCEL","can_perform":true},"reasign":{"action_url":"/services/iris/api/record_cards/record_cards/reasign/","check_url":null,"reason":"La fitxa PHH6541 no es pot reassignar fora de l'àmbit perquè s'ha sobrepassat el periode per fer-ho. Per a reassignar-la fora de l'àmbit, s'ha de cancelar la fitxa per caducitat.","can_perform":true,"action_method":"post"}},"alarms":{"mayorship":false,"urgent":false,"pend_citizen_response":false,"response_time_expired":false,"citizen_response":false,"reasigned_task":false,"citizen_claim":false,"citizen_web_claim":false,"related_records":false,"cancel_request":false,"possible_similar_records":false,"response_to_responsible":false,"pend_response_responsible":false},"full_detail":true,"ubication":{"id":136,"via_type":"","official_street_name":"","street":"","street2":"","neighborhood":"","neighborhood_b":"","neighborhood_id":"","district":1,"statistical_sector":"","geocode_validation":"","geocode_district_id":"","research_zone":"","stair":"","floor":"","door":"","letter":"","coordinate_x":null,"coordinate_y":null,"coordinate_utm_x":null,"coordinate_utm_y":null,"latitude":null,"longitude":null,"xetrs89a":null,"yetrs89a":null,"numbering_type":""},"user_displayed":"demo","record_type":{"id":5,"user_id":"22","created_at":"2019-09-18T11:20:50.213310+02:00","updated_at":"2019-09-18T11:20:50.213329+02:00","description":"PETICIO DE SERVEI","tri":22,"trt":22,"templates":["Template 1222","saasddasdas dasdas"],"can_delete":false,"description_es":"PETICIO DE SERVEI","description_ca":"PETICIO DE SERVEI","description_en":"PETICIO DE SERVEI"}}]}